…
set_graph_style()

Download data

This code downloads the data from 538’s GitHub repo and does some light munging.

read_csv("https://projects.fivethirtyeight.com/soccer-api/club/spi_global_rankings.csv", progress = FALSE) %>% 
  filter(league == "United Soccer League") %>% 
  mutate(name = str_replace(name, "Arizona United", "Phoenix Rising")) -> df

df

## # A tibble: 33 x 7
##     rank prev_rank name                league              off   def   spi
##    <int>     <int> <chr>               <chr>             <dbl> <dbl> <dbl>
##  1   255       256 FC Cincinnati       United Soccer Le~  1.49  1.53  45.0
##  2   361       340 Phoenix Rising      United Soccer Le~  1.37  1.72  38.5
##  3   419       396 Louisville City FC  United Soccer Le~  1.28  1.85  34.1
##  4   427       428 Orange County SC    United Soccer Le~  1.23  1.81  33.5
##  5   481       513 Pittsburgh Riverho~ United Soccer Le~  0.77  1.4   29.7
##  6   490       461 Bethlehem Steel FC  United Soccer Le~  1.14  1.97  28.9
##  7   491       460 Real Monarchs SLC   United Soccer Le~  1.04  1.84  28.9
##  8   494       481 New York Red Bulls~ United Soccer Le~  1.5   2.49  28.4
##  9   496       497 Charleston Battery  United Soccer Le~  0.8   1.53  28.1
## 10   499       491 Reno 1868 FC        United Soccer Le~  1.01  1.86  27.8
## # ... with 23 more rows
…
