…
read_csv("https://raw.githubusercontent.com/conorotompkins/pittsburgh_311/master/data/pittsburgh_311.csv", progress = FALSE) %>% 
  clean_names() %>% 
  mutate(date = ymd(str_sub(created_on, 1, 10)),
         month = month(date, label = TRUE)) -> df

Prep the data

Create a dataframe of the top request types

(df %>% 
  count(request_type, sort = TRUE) %>% 
  filter(n > 400) -> df_top_requests)

## # A tibble: 84 x 2
##    request_type                             n
##    <chr>                                <int>
##  1 Potholes                             25202
##  2 Weeds/Debris                         16503
##  3 Building Maintenance                 10469
##  4 Snow/Ice removal                      7006
##  5 Refuse Violations                     6515
##  6 Abandoned Vehicle (parked on street)  5877
##  7 Missed Pick Up                        4689
##  8 Replace/Repair a Sign                 4445
##  9 Building Without a Permit             4404
## 10 Litter                                4198
## # ... with 74 more rows

Count the number of requests per month by request type, filter for the top request types, and fill in gaps in the data

(df %>%
  semi_join(df_top_requests) %>% 
  group_by(request_type, month) %>% 
  summarize(n = n()) %>% 
  complete(request_type, month) %>% 
  replace_na(replace = list(n = 0)) -> df_months)

## # A tibble: 1,008 x 3
## # Groups:   request_type [84]
##    request_type                         month     n
##    <chr>                                <ord> <dbl>
##  1 Abandoned Vehicle (parked on street) Jan     523
##  2 Abandoned Vehicle (parked on street) Feb     427
##  3 Abandoned Vehicle (parked on street) Mar     452
##  4 Abandoned Vehicle (parked on street) Apr     417
##  5 Abandoned Vehicle (parked on street) May     488
##  6 Abandoned Vehicle (parked on street) Jun     466
##  7 Abandoned Vehicle (parked on street) Jul     457
##  8 Abandoned Vehicle (parked on street) Aug     596
##  9 Abandoned Vehicle (parked on street) Sep     525
## 10 Abandoned Vehicle (parked on street) Oct     571
## # ... with 998 more rows

Calculate the percentage of a request type for each month

(df_months %>% 
  group_by(request_type) %>% 
  mutate(request_type_total = sum(n),
         month_percentage = n / request_type_total) -> df_months)

## # A tibble: 1,008 x 5
## # Groups:   request_type [84]
##    request_type             month     n request_type_tot~ month_percentage
##    <chr>                    <ord> <dbl>             <dbl>            <dbl>
##  1 Abandoned Vehicle (park~ Jan     523              5877           0.0890
##  2 Abandoned Vehicle (park~ Feb     427              5877           0.0727
##  3 Abandoned Vehicle (park~ Mar     452              5877           0.0769
##  4 Abandoned Vehicle (park~ Apr     417              5877           0.0710
##  5 Abandoned Vehicle (park~ May     488              5877           0.0830
##  6 Abandoned Vehicle (park~ Jun     466              5877           0.0793
##  7 Abandoned Vehicle (park~ Jul     457              5877           0.0778
##  8 Abandoned Vehicle (park~ Aug     596              5877           0.101 
##  9 Abandoned Vehicle (park~ Sep     525              5877           0.0893
## 10 Abandoned Vehicle (park~ Oct     571              5877           0.0972
## # ... with 998 more rows
…
## # A tibble: 0 x 5
## # Groups:   request_type [0]
## # ... with 5 variables: request_type <chr>, month <ord>, n <dbl>,
## #   request_type_total <dbl>, month_percentage <dbl>

Spread the data to turn the months into the columns

(df_months %>% 
  select(request_type, month, month_percentage) %>% 
  spread(month, month_percentage) %>% 
  ungroup() -> df_months)

## # A tibble: 84 x 13
##    request_type     Jan     Feb    Mar    Apr    May    Jun    Jul    Aug
##    <chr>          <dbl>   <dbl>  <dbl>  <dbl>  <dbl>  <dbl>  <dbl>  <dbl>
##  1 Abandoned V~ 0.0890  0.0727  0.0769 0.0710 0.0830 0.0793 0.0778 0.101 
##  2 Barking Dog  0.0563  0.0608  0.0608 0.0631 0.104  0.101  0.0788 0.113 
##  3 Board Up (P~ 0.0395  0.0482  0.0658 0.0943 0.114  0.0899 0.110  0.123 
##  4 Broken Side~ 0.0337  0.155   0.148  0.0872 0.105  0.0964 0.0696 0.0735
##  5 Building Ma~ 0.0708  0.0919  0.103  0.0739 0.0842 0.0829 0.0725 0.0919
##  6 Building Wi~ 0.0842  0.0697  0.0636 0.0577 0.105  0.0883 0.0924 0.0815
##  7 Catch Basin~ 0.0636  0.0377  0.0778 0.0748 0.0984 0.132  0.0825 0.127 
##  8 City Source~ 0.00527 0.00246 0.0105 0.0428 0.196  0.213  0.195  0.164 
##  9 City Steps,~ 0.0443  0.0180  0.0148 0.0197 0.116  0.216  0.203  0.146 
## 10 City Steps,~ 0.0265  0.0305  0.0713 0.0509 0.128  0.120  0.136  0.128 
## # ... with 74 more rows, and 4 more variables: Sep <dbl>, Oct <dbl>,
## #   Nov <dbl>, Dec <dbl>

Check that they all add up to 1 across the rows

(df_months %>% 
  select(Jan:Dec) %>% 
  mutate(row_sum = rowSums(.)) %>% 
  select(row_sum, everything()) -> test)

## # A tibble: 84 x 13
##    row_sum     Jan     Feb    Mar    Apr    May    Jun    Jul    Aug    Sep
##      <dbl>   <dbl>   <dbl>  <dbl>  <dbl>  <dbl>  <dbl>  <dbl>  <dbl>  <dbl>
##  1       1 0.0890  0.0727  0.0769 0.0710 0.0830 0.0793 0.0778 0.101  0.0893
##  2       1 0.0563  0.0608  0.0608 0.0631 0.104  0.101  0.0788 0.113  0.124 
##  3       1 0.0395  0.0482  0.0658 0.0943 0.114  0.0899 0.110  0.123  0.0855
##  4       1 0.0337  0.155   0.148  0.0872 0.105  0.0964 0.0696 0.0735 0.0528
##  5       1 0.0708  0.0919  0.103  0.0739 0.0842 0.0829 0.0725 0.0919 0.0776
##  6       1 0.0842  0.0697  0.0636 0.0577 0.105  0.0883 0.0924 0.0815 0.0829
##  7       1 0.0636  0.0377  0.0778 0.0748 0.0984 0.132  0.0825 0.127  0.105 
##  8       1 0.00527 0.00246 0.0105 0.0428 0.196  0.213  0.195  0.164  0.0808
##  9       1 0.0443  0.0180  0.0148 0.0197 0.116  0.216  0.203  0.146  0.118 
## 10       1 0.0265  0.0305  0.0713 0.0509 0.128  0.120  0.136  0.128  0.108 
## # ... with 74 more rows, and 3 more variables: Oct <dbl>, Nov <dbl>,
## #   Dec <dbl>
…
It is not feasible to plot all the months against each other. PCA can help by condensing the columns and increasing the variance. PCA creates eigenvectors that represents the data in a concentrated way. Eigenvectors and eigenvalues do not represent observed data. They are calculated representations of the data. We will refer to eigenvectors as “principal components”.

In this case, where our data is measured by months in a year, each principal component could loosely be compared to a season.

Prep the data for PCA

The PCA function requires an all-numeric dataframe, so drop the request types into the dataframe metadata

(df_months %>% 
  ungroup() %>% 
  remove_rownames() %>% 
  column_to_rownames(var = "request_type") -> df_months_pca1)

## # A tibble: 84 x 12
##        Jan     Feb    Mar    Apr    May    Jun    Jul    Aug    Sep    Oct
##  *   <dbl>   <dbl>  <dbl>  <dbl>  <dbl>  <dbl>  <dbl>  <dbl>  <dbl>  <dbl>
##  1 0.0890  0.0727  0.0769 0.0710 0.0830 0.0793 0.0778 0.101  0.0893 0.0972
##  2 0.0563  0.0608  0.0608 0.0631 0.104  0.101  0.0788 0.113  0.124  0.113 
##  3 0.0395  0.0482  0.0658 0.0943 0.114  0.0899 0.110  0.123  0.0855 0.0877
##  4 0.0337  0.155   0.148  0.0872 0.105  0.0964 0.0696 0.0735 0.0528 0.0849
##  5 0.0708  0.0919  0.103  0.0739 0.0842 0.0829 0.0725 0.0919 0.0776 0.0787
##  6 0.0842  0.0697  0.0636 0.0577 0.105  0.0883 0.0924 0.0815 0.0829 0.113 
##  7 0.0636  0.0377  0.0778 0.0748 0.0984 0.132  0.0825 0.127  0.105  0.0931
##  8 0.00527 0.00246 0.0105 0.0428 0.196  0.213  0.195  0.164  0.0808 0.0583
##  9 0.0443  0.0180  0.0148 0.0197 0.116  0.216  0.203  0.146  0.118  0.0557
## 10 0.0265  0.0305  0.0713 0.0509 0.128  0.120  0.136  0.128  0.108  0.0855
## # ... with 74 more rows, and 2 more variables: Nov <dbl>, Dec <dbl>
…
