…
theme_set(theme_bw())

census_vars <- load_variables(2010, "sf1", cache = TRUE)

Collect data

tidycensus provides a wrapper for the U.S. Census API. You can request a wide variety of data, from economic measures to information about demography. The API also includes data about geographic regions.

This code creates a dataframe of some of the variables available through the census API.

vars <- load_variables(2016, "acs5", cache = TRUE)

vars

## # A tibble: 22,855 x 3
##    name      label                              concept                   
##    <chr>     <chr>                              <chr>                     
##  1 AIANHH    FIPS AIANHH code                   <NA>                      
##  2 AIHHTLI   American Indian Trust Land/Hawaii~ <NA>                      
##  3 AITSCE    American Indian Tribal Subdivisio~ <NA>                      
##  4 ANRC      Alaska Native Regional Corporatio~ <NA>                      
##  5 B00001_0~ Estimate!!Total                    UNWEIGHTED SAMPLE COUNT O~
##  6 B00002_0~ Estimate!!Total                    UNWEIGHTED SAMPLE HOUSING~
##  7 B01001_0~ Estimate!!Total                    SEX BY AGE                
##  8 B01001_0~ Estimate!!Total!!Male              SEX BY AGE                
##  9 B01001_0~ Estimate!!Total!!Male!!Under 5 ye~ SEX BY AGE                
## 10 B01001_0~ Estimate!!Total!!Male!!5 to 9 yea~ SEX BY AGE                
## # ... with 22,845 more rows
…
