…
538 recently added the United Soccer League to their Soccer Power Index ratings. I’m a Riverhounds fan, so I wanted to see how the team compared to teams from leagues around the world.

library(tidyverse)
library(ggrepel)

theme_set(theme_bw())

df <- read_csv("https://projects.fivethirtyeight.com/soccer-api/club/spi_global_rankings.csv", progress = FALSE) %>% 
  group_by(league) %>% 
  mutate(league_spi = median(spi)) %>% 
  ungroup() %>% 
  mutate(league = fct_reorder(league, league_spi))
df

## # A tibble: 576 x 8
##    name         league         rank prev_rank   off   def   spi league_spi
##    <chr>        <fct>         <int>     <int> <dbl> <dbl> <dbl>      <dbl>
##  1 Manchester ~ Barclays Pre~     1         1   2.8   0.2  92.5       67.3
##  2 Barcelona    Spanish Prim~     2         2   3.1   0.4  92         74.8
##  3 Bayern Muni~ German Bunde~     3         3   3.1   0.4  91.9       66.4
##  4 Real Madrid  Spanish Prim~     4         4   3.1   0.5  91.3       74.8
##  5 Liverpool    Barclays Pre~     5         6   2.7   0.4  89.5       67.3
##  6 Juventus     Italy Serie A     6         5   2.5   0.3  89.4       61.6
##  7 Paris Saint~ French Ligue~     7         7   2.8   0.4  88.9       59.8
##  8 Atletico Ma~ Spanish Prim~     8         8   2.3   0.3  87.1       74.8
##  9 Tottenham H~ Barclays Pre~     9         9   2.5   0.5  85.7       67.3
## 10 Chelsea      Barclays Pre~    10        10   2.4   0.5  85.1       67.3
## # ... with 566 more rows
…
