…
This counts the number of rows per full zone description (full_zonin) and type:

df_zones <- df %>% 
  count(full_zonin, type, sort = TRUE) %>% 
  st_drop_geometry()

## # A tibble: 59 x 3
##    full_zonin                              type                           n
##  * <fct>                                   <fct>                      <int>
##  1 PARKS AND OPEN SPACE                    Other non-residential        148
##  2 LOCAL NEIGHBORHOOD COMMERCIAL           Other non-residential        126
##  3 SINGLE-UNIT DETACHED RESIDENTIAL LOW D~ Single-unit detached resi~    75
##  4 MULTI-UNIT RESIDENTIAL MODERATE DENSITY Other residential             69
##  5 HILLSIDE                                Other non-residential         65
##  6 URBAN INDUSTRIAL                        Other non-residential         52
##  7 TWO-UNIT RESIDENTIAL LOW DENSITY        Other residential             51
##  8 SINGLE-UNIT DETACHED RESIDENTIAL HIGH ~ Single-unit detached resi~    44
##  9 SINGLE-UNIT ATTACHED RESIDENTIAL HIGH ~ Other residential             43
## 10 RESIDENTIAL PLANNED UNIT DEVELOPMENT    Other residential             42
## # ... with 49 more rows
…
