…
future <- make_future_dataframe(m, periods = 365, freq = "day") %>% 
  mutate(floor = 0,
         cap = unique(df$cap))

This code performs the forecast on the future dataset.

forecast <- predict(m, future) %>% 
  as_tibble()

The output is a dataframe with the date, the predicted ridership, and the upper and lower bounds of the prediction.

forecast

## # A tibble: 1,675 x 66
##    ds                  trend   cap floor additive_terms additive_terms_~
##    <dttm>              <dbl> <dbl> <dbl>          <dbl>            <dbl>
##  1 2015-05-31 00:00:00 2065. 24228     0          1293.            1293.
##  2 2015-06-01 00:00:00 2064. 24228     0           681.             681.
##  3 2015-06-02 00:00:00 2063. 24228     0           775.             775.
##  4 2015-06-03 00:00:00 2062. 24228     0           846.             846.
##  5 2015-06-04 00:00:00 2061. 24228     0           764.             764.
##  6 2015-06-05 00:00:00 2060. 24228     0           935.             935.
##  7 2015-06-06 00:00:00 2058. 24228     0          1413.            1413.
##  8 2015-06-07 00:00:00 2057. 24228     0          1280.            1280.
##  9 2015-06-08 00:00:00 2056. 24228     0           661.             661.
## 10 2015-06-09 00:00:00 2055. 24228     0           750.             750.
## # ... with 1,665 more rows, and 60 more variables:
## #   additive_terms_upper <dbl>, `Christmas Day` <dbl>, `Christmas
## #   Day_lower` <dbl>, `Christmas Day_upper` <dbl>, `Christmas Day
## #   (Observed)` <dbl>, `Christmas Day (Observed)_lower` <dbl>, `Christmas
## #   Day (Observed)_upper` <dbl>, `Columbus Day` <dbl>, `Columbus
## #   Day_lower` <dbl>, `Columbus Day_upper` <dbl>, holidays <dbl>,
## #   holidays_lower <dbl>, holidays_upper <dbl>, `Independence Day` <dbl>,
## #   `Independence Day_lower` <dbl>, `Independence Day_upper` <dbl>,
## #   `Independence Day (Observed)` <dbl>, `Independence Day
…
