…
{ggmap}

Uses Google Maps API to get basemaps.
The API now requires a credit card, but it has a fairly generous “free” tier.

Using {tidycensus}

census_api_key("your_key_here")

This loads the variables from the Decennial Census in 2010:

variables_dec <- load_variables(year = 2010, dataset = "sf1", cache = TRUE)

## # A tibble: 3,346 x 3
##    name    label                                concept         
##    <chr>   <chr>                                <chr>           
##  1 H001001 Total                                HOUSING UNITS   
##  2 H002001 Total                                URBAN AND RURAL 
##  3 H002002 Total!!Urban                         URBAN AND RURAL 
##  4 H002003 Total!!Urban!!Inside urbanized areas URBAN AND RURAL 
##  5 H002004 Total!!Urban!!Inside urban clusters  URBAN AND RURAL 
##  6 H002005 Total!!Rural                         URBAN AND RURAL 
##  7 H002006 Total!!Not defined for this file     URBAN AND RURAL 
##  8 H003001 Total                                OCCUPANCY STATUS
##  9 H003002 Total!!Occupied                      OCCUPANCY STATUS
## 10 H003003 Total!!Vacant                        OCCUPANCY STATUS
## # ... with 3,336 more rows

This loads the ACS variables for 2017:

variables_acs <- load_variables(year = 2017, dataset = "acs5", cache = TRUE)

## # A tibble: 25,070 x 3
##    name      label                         concept                         
##    <chr>     <chr>                         <chr>                           
##  1 B00001_0~ Estimate!!Total               UNWEIGHTED SAMPLE COUNT OF THE ~
##  2 B00002_0~ Estimate!!Total               UNWEIGHTED SAMPLE HOUSING UNITS 
##  3 B01001_0~ Estimate!!Total               SEX BY AGE                      
##  4 B01001_0~ Estimate!!Total!!Male         SEX BY AGE                      
##  5 B01001_0~ Estimate!!Total!!Male!!Under~ SEX BY AGE                      
##  6 B01001_0~ Estimate!!Total!!Male!!5 to ~ SEX BY AGE                      
##  7 B01001_0~ Estimate!!Total!!Male!!10 to~ SEX BY AGE                      
##  8 B01001_0~ Estimate!!Total!!Male!!15 to~ SEX BY AGE                      
##  9 B01001_0~ Estimate!!Total!!Male!!18 an~ SEX BY AGE                      
## 10 B01001_0~ Estimate!!Total!!Male!!20 ye~ SEX BY AGE                      
## # ... with 25,060 more rows
…
states <- get_decennial(geography = "state",
                        variables = c(total_pop = "P001001"),
                        geometry = TRUE,
                        output = "wide")

The states tibble contains the census data and the polygons for the geometries.

## Simple feature collection with 52 features and 3 fields
## geometry type:  MULTIPOLYGON
## dimension:      XY
## bbox:           xmin: -179 ymin: 17.9 xmax: 180 ymax: 71.4
## epsg (SRID):    4269
## proj4string:    +proj=longlat +datum=NAD83 +no_defs
## # A tibble: 52 x 4
##    GEOID NAME     total_pop                                        geometry
##    <chr> <chr>        <dbl>                              <MULTIPOLYGON [°]>
##  1 01    Alabama    4779736 (((-85 31, -85 31, -85 31, -85 31, -85 31, -85~
##  2 02    Alaska      710231 (((-165 54.1, -165 54.1, -165 54.1, -165 54.1,~
##  3 04    Arizona    6392017 (((-109 37, -109 37, -109 37, -109 36.9, -109 ~
##  4 05    Arkansas   2915918 (((-94.6 36.5, -94.5 36.5, -94.4 36.5, -94.1 3~
##  5 06    Califor~  37253956 (((-122 37.9, -122 37.9, -122 37.9, -122 37.9,~
##  6 22    Louisia~   4533372 (((-88.9 29.8, -88.9 29.7, -88.9 29.7, -88.9 2~
##  7 21    Kentucky   4339367 (((-83.7 36.6, -83.7 36.6, -83.7 36.6, -83.7 3~
##  8 08    Colorado   5029196 (((-102 37, -102 37, -102 37, -102 37, -102 37~
##  9 09    Connect~   3574097 (((-71.9 41.3, -71.9 41.3, -71.9 41.3, -71.9 4~
## 10 10    Delaware    897934 (((-75.6 39.6, -75.6 39.6, -75.6 39.6, -75.6 3~
## # ... with 42 more rows
…
