…
df <- df %>% 
  filter(year(observation_date) >= 2016)

Species counts

df_counts <- df %>% 
  count(common_name, name = "species_count", sort = TRUE)

df_counts

## # A tibble: 292 x 2
##    common_name            species_count
##    <chr>                          <int>
##  1 Northern Cardinal              21217
##  2 Song Sparrow                   17959
##  3 Blue Jay                       16714
##  4 Mourning Dove                  15756
##  5 American Robin                 15369
##  6 Tufted Titmouse                13954
##  7 American Crow                  13618
##  8 Carolina Wren                  12797
##  9 Red-bellied Woodpecker         12657
## 10 American Goldfinch             11746
## # ... with 282 more rows
…
df_corr_diff <- df_slopegraph %>% 
  pivot_wider(names_from = item1, values_from = correlation, names_prefix = "corr_") %>% 
  clean_names() %>% 
  mutate(corr_diff = abs(corr_blue_jay - corr_northern_cardinal)) %>% 
  select(item2, corr_diff)

df_corr_diff

## # A tibble: 29 x 2
##    item2                   corr_diff
##    <chr>                       <dbl>
##  1 Tufted Titmouse            0.0258
##  2 Carolina Wren             NA     
##  3 Northern Cardinal         NA     
##  4 Red-bellied Woodpecker     0.0151
##  5 White-breasted Nuthatch    0.0143
##  6 Downy Woodpecker          NA     
##  7 Song Sparrow               0.121 
##  8 Northern Flicker           0.0245
##  9 Mourning Dove             NA     
## 10 Eastern Towhee            NA     
## # ... with 19 more rows
…
