…
theme_set(theme_bw(base_size = 16))

This reads in data from the eBird data portal:

df <- vroom("data/ebird2/ebd_US-PA-003_201001_202003_relFeb-2020.zip", delim = "\t") %>% 
  clean_names() %>% 
  mutate_at(vars(observer_id, locality, observation_date, time_observations_started, protocol_type), str_replace_na, "NA") %>% 
  mutate(observation_count = as.numeric(str_replace(observation_count, "X", as.character(NA))),
         observation_event_id = str_c(observer_id, locality, observation_date, time_observations_started, sep = "-"),
         observation_date = ymd(observation_date)) %>%
  filter(all_species_reported == 1)

df

## # A tibble: 528,787 x 48
##    global_unique_i~ last_edited_date    taxonomic_order category common_name
##    <chr>            <dttm>                        <dbl> <chr>    <chr>      
##  1 URN:CornellLabO~ 2018-08-03 11:44:16             493 species  American B~
##  2 URN:CornellLabO~ 2018-08-03 11:44:34           20638 species  American C~
##  3 URN:CornellLabO~ 2016-06-16 20:47:49           20638 species  American C~
##  4 URN:CornellLabO~ 2014-04-25 01:11:40           20638 species  American C~
##  5 URN:CornellLabO~ 2018-01-10 18:41:16           20638 species  American C~
##  6 URN:CornellLabO~ 2016-06-16 20:47:49           20638 species  American C~
##  7 URN:CornellLabO~ 2016-06-16 20:47:49           20638 species  American C~
##  8 URN:CornellLabO~ 2016-04-27 08:20:35           20638 species  American C~
##  9 URN:CornellLabO~ 2018-08-03 11:44:08           20638 species  American C~
## 10 URN:CornellLabO~ 2014-04-25 00:51:10           20638 species  American C~
## # ... with 528,777 more rows, and 43 more variables: scientific_name <chr>,
## #   subspecies_common_name <chr>, subspecies_scientific_name <chr>,
## #   observation_count <dbl>, breeding_bird_atlas_code <chr>,
## #   breeding_bird_atlas_category <chr>, age_sex <chr>, country <chr>,
## #   country_code <chr>, state <chr>, state_code <chr>, county <chr>,
## #   county_code <chr>, iba_code <lgl>, bcr_code <dbl>, usfws_code <lgl>,
## #   atlas_block <lgl>, locality <chr>, locality_id <chr>, locality_type <chr>,
## #   latitude <dbl>, longitude <dbl>, observation_date <date>,
## #   time_observations_started <chr>, observer_id <chr>,
…
